…
I believe that there will be 11 rows of data when we convert this data
to long format.

``` r
staff_long <- staff %>%
  pivot_longer(cols = -faculty_type, names_to = "year") %>%
  mutate(value = as.numeric(value))

staff_long
```

    ## # A tibble: 55 × 3
    ##    faculty_type              year  value
    ##    <chr>                     <chr> <dbl>
    ##  1 Full-Time Tenured Faculty 1975   29  
    ##  2 Full-Time Tenured Faculty 1989   27.6
    ##  3 Full-Time Tenured Faculty 1993   25  
    ##  4 Full-Time Tenured Faculty 1995   24.8
    ##  5 Full-Time Tenured Faculty 1999   21.8
    ##  6 Full-Time Tenured Faculty 2001   20.3
    ##  7 Full-Time Tenured Faculty 2003   19.3
    ##  8 Full-Time Tenured Faculty 2005   17.8
    ##  9 Full-Time Tenured Faculty 2007   17.2
    ## 10 Full-Time Tenured Faculty 2009   16.8
    ## # … with 45 more rows
…
    ## Rows: 216 Columns: 4
    ## ── Column specification ────────────────────────────────────────────────────────
    ## Delimiter: ","
    ## chr (1): country
    ## dbl (3): capture, aquaculture, total
    ## 
    ## ℹ Use `spec()` to retrieve the full column specification for this data.
    ## ℹ Specify the column types or set `show_col_types = FALSE` to quiet this message.

``` r
fisheries
```

    ## # A tibble: 216 × 4
    ##    country             capture aquaculture  total
    ##    <chr>                 <dbl>       <dbl>  <dbl>
    ##  1 Afghanistan            1000        1200   2200
    ##  2 Albania                7886         950   8836
    ##  3 Algeria               95000        1361  96361
    ##  4 American Samoa         3047          20   3067
    ##  5 Andorra                   0           0      0
    ##  6 Angola               486490         655 487145
    ##  7 Antigua and Barbuda    3000          10   3010
    ##  8 Argentina            755226        3673 758899
    ##  9 Armenia                3758       16381  20139
    ## 10 Aruba                   142           0    142
    ## # … with 206 more rows
…
``` r
fisheries <- fisheries %>% mutate(continent = countrycode(sourcevar = fisheries$country,
                            origin = "country.name",
                            destination = "continent"))
```

    ## Warning in countrycode_convert(sourcevar = sourcevar, origin = origin, destination = dest, : Some values were not matched unambiguously: Jersey and Guernsey

    ## Warning in countrycode_convert(sourcevar = sourcevar, origin = origin, destination = dest, : Some strings were matched more than once, and therefore set to <NA> in the result: Jersey and Guernsey,Europe,Europe

``` r
fisheries
```

    ## # A tibble: 216 × 5
    ##    country             capture aquaculture  total continent
    ##    <chr>                 <dbl>       <dbl>  <dbl> <chr>    
    ##  1 Afghanistan            1000        1200   2200 Asia     
    ##  2 Albania                7886         950   8836 Europe   
    ##  3 Algeria               95000        1361  96361 Africa   
    ##  4 American Samoa         3047          20   3067 Oceania  
    ##  5 Andorra                   0           0      0 Europe   
    ##  6 Angola               486490         655 487145 Africa   
    ##  7 Antigua and Barbuda    3000          10   3010 Americas 
    ##  8 Argentina            755226        3673 758899 Americas 
    ##  9 Armenia                3758       16381  20139 Asia     
    ## 10 Aruba                   142           0    142 Americas 
    ## # … with 206 more rows
…
